The gaussian function at x = 1 with a,b,c being defaults is 0.607. 
The square root of pi: 1.772 
The precision is better than 1.0e-03 for n >= 6 
Interval boundary >= 1.766 for > 99 percent of the Square of the indefinite intgral included. 
